<?xml version="1.0" encoding="UTF-8"?>
<svg width="132px" height="28px" viewBox="0 0 132 28" version="1.1" xmlns="http://www.w3.org/2000/svg" xmlns:xlink="http://www.w3.org/1999/xlink">
    <!-- Generator: Sketch 63.1 (92452) - https://sketch.com -->
    <title>title</title>
    <desc>Created with Sketch.</desc>
    <g id="Page-1" stroke="none" stroke-width="1" fill="none" fill-rule="evenodd">
        <g id="iPhone-8" transform="translate(-56.000000, -122.000000)">
            <g id="title" transform="translate(56.000000, 122.000000)">
                <rect id="Rectangle" fill="#16E187" x="0" y="0" width="132" height="28"></rect>
                <text id="这是一个标题" font-family="PingFangSC-Semibold, PingFang SC" font-size="14" font-weight="500" fill="#333333">
                    <tspan x="11" y="19">这是一个标题</tspan>
                </text>
            </g>
        </g>
    </g>
</svg>