<?xml version="1.0" encoding="UTF-8"?>
<svg width="557px" height="278px" viewBox="0 0 557 278" version="1.1" xmlns="http://www.w3.org/2000/svg" xmlns:xlink="http://www.w3.org/1999/xlink">
    <!-- Generator: Sketch 63.1 (92452) - https://sketch.com -->
    <title>手绘插画</title>
    <desc>Created with Sketch.</desc>
    <g id="Page-1" stroke="none" stroke-width="1" fill="none" fill-rule="evenodd">
        <g id="iPhone-8" transform="translate(-17.000000, -351.000000)">
            <g id="手绘插画" transform="translate(19.000000, 351.000000)">
                <rect id="Rectangle" fill="#FFB400" x="167.606602" y="48.1152237" width="229" height="229"></rect>
                <text id="03" font-family="PingFangSC-Semibold, PingFang SC" font-size="50" font-weight="500" fill="#000000">
                    <tspan x="290.606602" y="230.115224">03</tspan>
                </text>
                <text font-family="PingFangSC-Semibold, PingFang SC" font-size="40" font-weight="500" fill="#000000">
                    <tspan x="191" y="123.115224">手绘插画</tspan>
                </text>
                <rect id="Rectangle-Copy" stroke="#000000" stroke-width="2" x="147.606602" y="28.1152237" width="227" height="227"></rect>
                <rect id="Rectangle" fill="#000000" transform="translate(316.062446, 162.571068) scale(-1, 1) rotate(45.000000) translate(-316.062446, -162.571068) " x="281.062446" y="161.571068" width="70" height="2"></rect>
                <rect id="Rectangle-Copy-2" fill="#000000" transform="translate(148.062446, 213.177670) scale(-1, 1) rotate(45.000000) translate(-148.062446, -213.177670) " x="98.0624458" y="212.17767" width="100" height="2"></rect>
                <rect id="Rectangle-Copy-3" fill="#000000" transform="translate(340.991378, 18.500000) scale(-1, 1) rotate(45.000000) translate(-340.991378, -18.500000) " x="315.991378" y="17.5" width="50" height="2"></rect>
                <path d="M18,193 L18,201 M18,221 L18,229 M0,211 L8,211 M28,211 L36,211 M5.27207794,198.272078 L10.9289322,203.928932 M25.0710678,218.071068 L30.7279221,223.727922 M5.27207794,223.727922 L10.9289322,218.071068 M25.0710678,203.928932 L30.7279221,198.272078" id="Combined-Shape" stroke="#121212" stroke-width="4" stroke-linecap="round" stroke-linejoin="round"></path>
                <circle id="Oval" stroke="#121212" stroke-width="4" stroke-linecap="round" stroke-linejoin="round" cx="46" cy="68" r="10"></circle>
                <circle id="Oval" stroke="#121212" stroke-width="4" stroke-linecap="round" stroke-linejoin="round" cx="543" cy="222" r="10"></circle>
                <path d="M503.353553,63.3535534 L520.324116,80.3241161 M503.353553,80.3241161 L520.324116,63.3535534" id="Combined-Shape" stroke="#121212" stroke-width="4" stroke-linecap="round" stroke-linejoin="round"></path>
            </g>
        </g>
    </g>
</svg>