<?xml version="1.0" encoding="UTF-8"?>
<svg width="188px" height="23px" viewBox="0 0 188 23" version="1.1" xmlns="http://www.w3.org/2000/svg" xmlns:xlink="http://www.w3.org/1999/xlink">
    <!-- Generator: Sketch 63.1 (92452) - https://sketch.com -->
    <title>手绘插画-2</title>
    <desc>Created with Sketch.</desc>
    <defs>
        <rect id="path-1" x="0" y="3" width="4" height="20"></rect>
    </defs>
    <g id="Page-1" stroke="none" stroke-width="1" fill="none" fill-rule="evenodd">
        <g id="iPhone-8" transform="translate(-48.000000, -177.000000)">
            <g id="手绘插画-2" transform="translate(48.000000, 174.000000)">
                <g id="Rectangle">
                    <use fill="#FFEE00" xlink:href="#path-1"></use>
                    <use fill="#FFBE22" xlink:href="#path-1"></use>
                </g>
                <text id="手绘插画_绘画过程" font-family="FZLTZHK--GBK1-0, Lantinghei SC" font-size="20" font-weight="500" fill="#000000">
                    <tspan x="14" y="21">手绘插画_</tspan>
                    <tspan x="107.828125" y="21" font-family="FZLTXHK--GBK1-0, Lantinghei SC" font-weight="300">绘画过程</tspan>
                </text>
            </g>
        </g>
    </g>
</svg>